   0x080485c0 <+0>: push   %edi
   0x080485c1 <+1>: xor    %eax,%eax
   0x080485c3 <+3>: push   %esi
   0x080485c4 <+4>: push   %ebx
   0x080485c5 <+5>: mov    0x10(%esp),%ecx
   0x080485c9 <+9>: mov    0x14(%esp),%edi
   0x080485cd <+13>:    fldz   
   0x080485cf <+15>:    mov    0x18(%esp),%esi
   0x080485d3 <+19>:    mov    0x1c(%esp),%ebx
   0x080485d7 <+23>:    test   %ecx,%ecx
   0x080485d9 <+25>:    jg     0x80485fe <_Z7solve_ciPfS_S_+62>
   0x080485db <+27>:    fstp   %st(0)
   0x080485dd <+29>:    jmp    0x804861a <_Z7solve_ciPfS_S_+90>
   0x080485df <+31>:    nop
   0x080485e0 <+32>:    fstp   %st(0)
   0x080485e2 <+34>:    flds   (%esi,%eax,4)
   0x080485e5 <+37>:    mov    0x80487a8,%edx
   0x080485eb <+43>:    fcomip %st(1),%st
   0x080485ed <+45>:    cmove  0x80487a4,%edx
   0x080485f4 <+52>:    mov    %edx,(%ebx,%eax,4)
   0x080485f7 <+55>:    add    $0x1,%eax
   0x080485fa <+58>:    cmp    %ecx,%eax
   0x080485fc <+60>:    je     0x8048618 <_Z7solve_ciPfS_S_+88>
   0x080485fe <+62>:    flds   (%edi,%eax,4)
   0x08048601 <+65>:    fcomi  %st(1),%st
   0x08048603 <+67>:    je     0x80485e0 <_Z7solve_ciPfS_S_+32>
   0x08048605 <+69>:    fdivrs (%esi,%eax,4)
   0x08048608 <+72>:    fstps  (%ebx,%eax,4)
   0x0804860b <+75>:    add    $0x1,%eax
   0x0804860e <+78>:    cmp    %ecx,%eax
   0x08048610 <+80>:    jne    0x80485fe <_Z7solve_ciPfS_S_+62>
   0x08048612 <+82>:    fstp   %st(0)
   0x08048614 <+84>:    jmp    0x804861a <_Z7solve_ciPfS_S_+90>
   0x08048616 <+86>:    xchg   %ax,%ax
   0x08048618 <+88>:    fstp   %st(0)
   0x0804861a <+90>:    pop    %ebx
   0x0804861b <+91>:    pop    %esi
   0x0804861c <+92>:    pop    %edi
   0x0804861d <+93>:    ret